जगातील सर्वात सुंदर नावे अनेक इटालियन नावे आहेत, पण आपण तुमचा मुलगा किंवा आपल्या मुलीला ठेवले निवडू काय नाव ... वडिलांचे नाव किंवा आईचे नाव सर्वात सुसंगत निर्धारित करण्यासाठी एक अल्गोरिदम वापरणे सर्वोत्तम आहे. मुले आणि मुली दरसाल साठी ombres.

आपण फक्त त्याच्या बापाचे जे नाव आणि आईचे नाव प्रविष्ट करा आणि त्वरित उच्च ओढ नाव प्राप्त करणे आवश्यक आहे. अनुप्रयोग मुलगा आणि मुलगी नावे दोन्ही नावे सूचित करेल, त्यामुळे आपण आदर्श नाव dscubrir नाही समस्या आहे करू.

आपण अधिक पर्याय नावे इच्छित असल्यास, आपण देखील यादृच्छिक नावे निवडू शकता आणि अशा प्रकारे सर्वात इटली मध्ये वापरले इटालियन नावे आमच्या संपूर्ण डेटाबेस पुनरावलोकन करतो.

या अनुप्रयोग अतिशय सोपे होईल इटालियन सर्वोत्तम नावे शोधण्याचा:

✔ नाव नावे वडील व आई अधिक समान शोधा

✔ डेटाबेस नावे शोध सुरू व्यापक इटालियन

✔ सर्वात आम्हाला घाबरू की नाव द्या

✔ हे सोपे सोपे आणि एक पाऊल आहे

✔ आपण मर्यादा नाही आपण इच्छित असलेल्या सर्व चौकशी व पूर्णपणे मुक्त करा,

 ♥♥♥ नाव जीवन आहे, आता तो दिसत ♥♥♥

सर्व व्याज नावे सर्व जोड्या आपण, आपले आणि आपल्या भागीदार, आपल्या भावंड, आपले मित्र. तुम्ही एक निवडू पर्याय भरपूर आहेत.

आपण आता अनुप्रयोग डाउनलोड करा आणि मोफत वापर अनेक चौकशी आणि शक्यता सह करू शकता. शोधू आणि आपल्या बाळाला नाव प्रतीक्षा करू नका.